mips/simulation/qsim/Mips.msim.vcd
$comment
	File created using the following command:
		vcd file Mips.msim.vcd -direction
$end
$date
	Tue Oct 30 19:41:21 2018
$end
$version
	ModelSim Version 10.5b
$end
$timescale
	1ps
$end

$scope module mips_vhd_vec_tst $end
$var wire 1 ! clk $end
$var wire 1 " fio1 [31] $end
$var wire 1 # fio1 [30] $end
$var wire 1 $ fio1 [29] $end
$var wire 1 % fio1 [28] $end
$var wire 1 & fio1 [27] $end
$var wire 1 ' fio1 [26] $end
$var wire 1 ( fio1 [25] $end
$var wire 1 ) fio1 [24] $end
$var wire 1 * fio1 [23] $end
$var wire 1 + fio1 [22] $end
$var wire 1 , fio1 [21] $end
$var wire 1 - fio1 [20] $end
$var wire 1 . fio1 [19] $end
$var wire 1 / fio1 [18] $end
$var wire 1 0 fio1 [17] $end
$var wire 1 1 fio1 [16] $end
$var wire 1 2 fio1 [15] $end
$var wire 1 3 fio1 [14] $end
$var wire 1 4 fio1 [13] $end
$var wire 1 5 fio1 [12] $end
$var wire 1 6 fio1 [11] $end
$var wire 1 7 fio1 [10] $end
$var wire 1 8 fio1 [9] $end
$var wire 1 9 fio1 [8] $end
$var wire 1 : fio1 [7] $end
$var wire 1 ; fio1 [6] $end
$var wire 1 < fio1 [5] $end
$var wire 1 = fio1 [4] $end
$var wire 1 > fio1 [3] $end
$var wire 1 ? fio1 [2] $end
$var wire 1 @ fio1 [1] $end
$var wire 1 A fio1 [0] $end
$var wire 1 B fio2 [31] $end
$var wire 1 C fio2 [30] $end
$var wire 1 D fio2 [29] $end
$var wire 1 E fio2 [28] $end
$var wire 1 F fio2 [27] $end
$var wire 1 G fio2 [26] $end
$var wire 1 H fio2 [25] $end
$var wire 1 I fio2 [24] $end
$var wire 1 J fio2 [23] $end
$var wire 1 K fio2 [22] $end
$var wire 1 L fio2 [21] $end
$var wire 1 M fio2 [20] $end
$var wire 1 N fio2 [19] $end
$var wire 1 O fio2 [18] $end
$var wire 1 P fio2 [17] $end
$var wire 1 Q fio2 [16] $end
$var wire 1 R fio2 [15] $end
$var wire 1 S fio2 [14] $end
$var wire 1 T fio2 [13] $end
$var wire 1 U fio2 [12] $end
$var wire 1 V fio2 [11] $end
$var wire 1 W fio2 [10] $end
$var wire 1 X fio2 [9] $end
$var wire 1 Y fio2 [8] $end
$var wire 1 Z fio2 [7] $end
$var wire 1 [ fio2 [6] $end
$var wire 1 \ fio2 [5] $end
$var wire 1 ] fio2 [4] $end
$var wire 1 ^ fio2 [3] $end
$var wire 1 _ fio2 [2] $end
$var wire 1 ` fio2 [1] $end
$var wire 1 a fio2 [0] $end
$var wire 1 b fio3 [31] $end
$var wire 1 c fio3 [30] $end
$var wire 1 d fio3 [29] $end
$var wire 1 e fio3 [28] $end
$var wire 1 f fio3 [27] $end
$var wire 1 g fio3 [26] $end
$var wire 1 h fio3 [25] $end
$var wire 1 i fio3 [24] $end
$var wire 1 j fio3 [23] $end
$var wire 1 k fio3 [22] $end
$var wire 1 l fio3 [21] $end
$var wire 1 m fio3 [20] $end
$var wire 1 n fio3 [19] $end
$var wire 1 o fio3 [18] $end
$var wire 1 p fio3 [17] $end
$var wire 1 q fio3 [16] $end
$var wire 1 r fio3 [15] $end
$var wire 1 s fio3 [14] $end
$var wire 1 t fio3 [13] $end
$var wire 1 u fio3 [12] $end
$var wire 1 v fio3 [11] $end
$var wire 1 w fio3 [10] $end
$var wire 1 x fio3 [9] $end
$var wire 1 y fio3 [8] $end
$var wire 1 z fio3 [7] $end
$var wire 1 { fio3 [6] $end
$var wire 1 | fio3 [5] $end
$var wire 1 } fio3 [4] $end
$var wire 1 ~ fio3 [3] $end
$var wire 1 !! fio3 [2] $end
$var wire 1 "! fio3 [1] $end
$var wire 1 #! fio3 [0] $end
$var wire 1 $! fio4 [3] $end
$var wire 1 %! fio4 [2] $end
$var wire 1 &! fio4 [1] $end
$var wire 1 '! fio4 [0] $end

$scope module i1 $end
$var wire 1 (! gnd $end
$var wire 1 )! vcc $end
$var wire 1 *! unknown $end
$var wire 1 +! devoe $end
$var wire 1 ,! devclrn $end
$var wire 1 -! devpor $end
$var wire 1 .! ww_devoe $end
$var wire 1 /! ww_devclrn $end
$var wire 1 0! ww_devpor $end
$var wire 1 1! ww_clk $end
$var wire 1 2! ww_fio1 [31] $end
$var wire 1 3! ww_fio1 [30] $end
$var wire 1 4! ww_fio1 [29] $end
$var wire 1 5! ww_fio1 [28] $end
$var wire 1 6! ww_fio1 [27] $end
$var wire 1 7! ww_fio1 [26] $end
$var wire 1 8! ww_fio1 [25] $end
$var wire 1 9! ww_fio1 [24] $end
$var wire 1 :! ww_fio1 [23] $end
$var wire 1 ;! ww_fio1 [22] $end
$var wire 1 <! ww_fio1 [21] $end
$var wire 1 =! ww_fio1 [20] $end
$var wire 1 >! ww_fio1 [19] $end
$var wire 1 ?! ww_fio1 [18] $end
$var wire 1 @! ww_fio1 [17] $end
$var wire 1 A! ww_fio1 [16] $end
$var wire 1 B! ww_fio1 [15] $end
$var wire 1 C! ww_fio1 [14] $end
$var wire 1 D! ww_fio1 [13] $end
$var wire 1 E! ww_fio1 [12] $end
$var wire 1 F! ww_fio1 [11] $end
$var wire 1 G! ww_fio1 [10] $end
$var wire 1 H! ww_fio1 [9] $end
$var wire 1 I! ww_fio1 [8] $end
$var wire 1 J! ww_fio1 [7] $end
$var wire 1 K! ww_fio1 [6] $end
$var wire 1 L! ww_fio1 [5] $end
$var wire 1 M! ww_fio1 [4] $end
$var wire 1 N! ww_fio1 [3] $end
$var wire 1 O! ww_fio1 [2] $end
$var wire 1 P! ww_fio1 [1] $end
$var wire 1 Q! ww_fio1 [0] $end
$var wire 1 R! ww_fio2 [31] $end
$var wire 1 S! ww_fio2 [30] $end
$var wire 1 T! ww_fio2 [29] $end
$var wire 1 U! ww_fio2 [28] $end
$var wire 1 V! ww_fio2 [27] $end
$var wire 1 W! ww_fio2 [26] $end
$var wire 1 X! ww_fio2 [25] $end
$var wire 1 Y! ww_fio2 [24] $end
$var wire 1 Z! ww_fio2 [23] $end
$var wire 1 [! ww_fio2 [22] $end
$var wire 1 \! ww_fio2 [21] $end
$var wire 1 ]! ww_fio2 [20] $end
$var wire 1 ^! ww_fio2 [19] $end
$var wire 1 _! ww_fio2 [18] $end
$var wire 1 `! ww_fio2 [17] $end
$var wire 1 a! ww_fio2 [16] $end
$var wire 1 b! ww_fio2 [15] $end
$var wire 1 c! ww_fio2 [14] $end
$var wire 1 d! ww_fio2 [13] $end
$var wire 1 e! ww_fio2 [12] $end
$var wire 1 f! ww_fio2 [11] $end
$var wire 1 g! ww_fio2 [10] $end
$var wire 1 h! ww_fio2 [9] $end
$var wire 1 i! ww_fio2 [8] $end
$var wire 1 j! ww_fio2 [7] $end
$var wire 1 k! ww_fio2 [6] $end
$var wire 1 l! ww_fio2 [5] $end
$var wire 1 m! ww_fio2 [4] $end
$var wire 1 n! ww_fio2 [3] $end
$var wire 1 o! ww_fio2 [2] $end
$var wire 1 p! ww_fio2 [1] $end
$var wire 1 q! ww_fio2 [0] $end
$var wire 1 r! ww_fio3 [31] $end
$var wire 1 s! ww_fio3 [30] $end
$var wire 1 t! ww_fio3 [29] $end
$var wire 1 u! ww_fio3 [28] $end
$var wire 1 v! ww_fio3 [27] $end
$var wire 1 w! ww_fio3 [26] $end
$var wire 1 x! ww_fio3 [25] $end
$var wire 1 y! ww_fio3 [24] $end
$var wire 1 z! ww_fio3 [23] $end
$var wire 1 {! ww_fio3 [22] $end
$var wire 1 |! ww_fio3 [21] $end
$var wire 1 }! ww_fio3 [20] $end
$var wire 1 ~! ww_fio3 [19] $end
$var wire 1 !" ww_fio3 [18] $end
$var wire 1 "" ww_fio3 [17] $end
$var wire 1 #" ww_fio3 [16] $end
$var wire 1 $" ww_fio3 [15] $end
$var wire 1 %" ww_fio3 [14] $end
$var wire 1 &" ww_fio3 [13] $end
$var wire 1 '" ww_fio3 [12] $end
$var wire 1 (" ww_fio3 [11] $end
$var wire 1 )" ww_fio3 [10] $end
$var wire 1 *" ww_fio3 [9] $end
$var wire 1 +" ww_fio3 [8] $end
$var wire 1 ," ww_fio3 [7] $end
$var wire 1 -" ww_fio3 [6] $end
$var wire 1 ." ww_fio3 [5] $end
$var wire 1 /" ww_fio3 [4] $end
$var wire 1 0" ww_fio3 [3] $end
$var wire 1 1" ww_fio3 [2] $end
$var wire 1 2" ww_fio3 [1] $end
$var wire 1 3" ww_fio3 [0] $end
$var wire 1 4" ww_fio4 [3] $end
$var wire 1 5" ww_fio4 [2] $end
$var wire 1 6" ww_fio4 [1] $end
$var wire 1 7" ww_fio4 [0] $end
$var wire 1 8" \fio1[0]~output_o\ $end
$var wire 1 9" \fio1[1]~output_o\ $end
$var wire 1 :" \fio1[2]~output_o\ $end
$var wire 1 ;" \fio1[3]~output_o\ $end
$var wire 1 <" \fio1[4]~output_o\ $end
$var wire 1 =" \fio1[5]~output_o\ $end
$var wire 1 >" \fio1[6]~output_o\ $end
$var wire 1 ?" \fio1[7]~output_o\ $end
$var wire 1 @" \fio1[8]~output_o\ $end
$var wire 1 A" \fio1[9]~output_o\ $end
$var wire 1 B" \fio1[10]~output_o\ $end
$var wire 1 C" \fio1[11]~output_o\ $end
$var wire 1 D" \fio1[12]~output_o\ $end
$var wire 1 E" \fio1[13]~output_o\ $end
$var wire 1 F" \fio1[14]~output_o\ $end
$var wire 1 G" \fio1[15]~output_o\ $end
$var wire 1 H" \fio1[16]~output_o\ $end
$var wire 1 I" \fio1[17]~output_o\ $end
$var wire 1 J" \fio1[18]~output_o\ $end
$var wire 1 K" \fio1[19]~output_o\ $end
$var wire 1 L" \fio1[20]~output_o\ $end
$var wire 1 M" \fio1[21]~output_o\ $end
$var wire 1 N" \fio1[22]~output_o\ $end
$var wire 1 O" \fio1[23]~output_o\ $end
$var wire 1 P" \fio1[24]~output_o\ $end
$var wire 1 Q" \fio1[25]~output_o\ $end
$var wire 1 R" \fio1[26]~output_o\ $end
$var wire 1 S" \fio1[27]~output_o\ $end
$var wire 1 T" \fio1[28]~output_o\ $end
$var wire 1 U" \fio1[29]~output_o\ $end
$var wire 1 V" \fio1[30]~output_o\ $end
$var wire 1 W" \fio1[31]~output_o\ $end
$var wire 1 X" \fio2[0]~output_o\ $end
$var wire 1 Y" \fio2[1]~output_o\ $end
$var wire 1 Z" \fio2[2]~output_o\ $end
$var wire 1 [" \fio2[3]~output_o\ $end
$var wire 1 \" \fio2[4]~output_o\ $end
$var wire 1 ]" \fio2[5]~output_o\ $end
$var wire 1 ^" \fio2[6]~output_o\ $end
$var wire 1 _" \fio2[7]~output_o\ $end
$var wire 1 `" \fio2[8]~output_o\ $end
$var wire 1 a" \fio2[9]~output_o\ $end
$var wire 1 b" \fio2[10]~output_o\ $end
$var wire 1 c" \fio2[11]~output_o\ $end
$var wire 1 d" \fio2[12]~output_o\ $end
$var wire 1 e" \fio2[13]~output_o\ $end
$var wire 1 f" \fio2[14]~output_o\ $end
$var wire 1 g" \fio2[15]~output_o\ $end
$var wire 1 h" \fio2[16]~output_o\ $end
$var wire 1 i" \fio2[17]~output_o\ $end
$var wire 1 j" \fio2[18]~output_o\ $end
$var wire 1 k" \fio2[19]~output_o\ $end
$var wire 1 l" \fio2[20]~output_o\ $end
$var wire 1 m" \fio2[21]~output_o\ $end
$var wire 1 n" \fio2[22]~output_o\ $end
$var wire 1 o" \fio2[23]~output_o\ $end
$var wire 1 p" \fio2[24]~output_o\ $end
$var wire 1 q" \fio2[25]~output_o\ $end
$var wire 1 r" \fio2[26]~output_o\ $end
$var wire 1 s" \fio2[27]~output_o\ $end
$var wire 1 t" \fio2[28]~output_o\ $end
$var wire 1 u" \fio2[29]~output_o\ $end
$var wire 1 v" \fio2[30]~output_o\ $end
$var wire 1 w" \fio2[31]~output_o\ $end
$var wire 1 x" \fio3[0]~output_o\ $end
$var wire 1 y" \fio3[1]~output_o\ $end
$var wire 1 z" \fio3[2]~output_o\ $end
$var wire 1 {" \fio3[3]~output_o\ $end
$var wire 1 |" \fio3[4]~output_o\ $end
$var wire 1 }" \fio3[5]~output_o\ $end
$var wire 1 ~" \fio3[6]~output_o\ $end
$var wire 1 !# \fio3[7]~output_o\ $end
$var wire 1 "# \fio3[8]~output_o\ $end
$var wire 1 ## \fio3[9]~output_o\ $end
$var wire 1 $# \fio3[10]~output_o\ $end
$var wire 1 %# \fio3[11]~output_o\ $end
$var wire 1 &# \fio3[12]~output_o\ $end
$var wire 1 '# \fio3[13]~output_o\ $end
$var wire 1 (# \fio3[14]~output_o\ $end
$var wire 1 )# \fio3[15]~output_o\ $end
$var wire 1 *# \fio3[16]~output_o\ $end
$var wire 1 +# \fio3[17]~output_o\ $end
$var wire 1 ,# \fio3[18]~output_o\ $end
$var wire 1 -# \fio3[19]~output_o\ $end
$var wire 1 .# \fio3[20]~output_o\ $end
$var wire 1 /# \fio3[21]~output_o\ $end
$var wire 1 0# \fio3[22]~output_o\ $end
$var wire 1 1# \fio3[23]~output_o\ $end
$var wire 1 2# \fio3[24]~output_o\ $end
$var wire 1 3# \fio3[25]~output_o\ $end
$var wire 1 4# \fio3[26]~output_o\ $end
$var wire 1 5# \fio3[27]~output_o\ $end
$var wire 1 6# \fio3[28]~output_o\ $end
$var wire 1 7# \fio3[29]~output_o\ $end
$var wire 1 8# \fio3[30]~output_o\ $end
$var wire 1 9# \fio3[31]~output_o\ $end
$var wire 1 :# \fio4[0]~output_o\ $end
$var wire 1 ;# \fio4[1]~output_o\ $end
$var wire 1 <# \fio4[2]~output_o\ $end
$var wire 1 =# \fio4[3]~output_o\ $end
$var wire 1 ># \clk~input_o\ $end
$var wire 1 ?# \FD|PC|q[2]~0_combout\ $end
$var wire 1 @# \FD|PC|q\ [31] $end
$var wire 1 A# \FD|PC|q\ [30] $end
$var wire 1 B# \FD|PC|q\ [29] $end
$var wire 1 C# \FD|PC|q\ [28] $end
$var wire 1 D# \FD|PC|q\ [27] $end
$var wire 1 E# \FD|PC|q\ [26] $end
$var wire 1 F# \FD|PC|q\ [25] $end
$var wire 1 G# \FD|PC|q\ [24] $end
$var wire 1 H# \FD|PC|q\ [23] $end
$var wire 1 I# \FD|PC|q\ [22] $end
$var wire 1 J# \FD|PC|q\ [21] $end
$var wire 1 K# \FD|PC|q\ [20] $end
$var wire 1 L# \FD|PC|q\ [19] $end
$var wire 1 M# \FD|PC|q\ [18] $end
$var wire 1 N# \FD|PC|q\ [17] $end
$var wire 1 O# \FD|PC|q\ [16] $end
$var wire 1 P# \FD|PC|q\ [15] $end
$var wire 1 Q# \FD|PC|q\ [14] $end
$var wire 1 R# \FD|PC|q\ [13] $end
$var wire 1 S# \FD|PC|q\ [12] $end
$var wire 1 T# \FD|PC|q\ [11] $end
$var wire 1 U# \FD|PC|q\ [10] $end
$var wire 1 V# \FD|PC|q\ [9] $end
$var wire 1 W# \FD|PC|q\ [8] $end
$var wire 1 X# \FD|PC|q\ [7] $end
$var wire 1 Y# \FD|PC|q\ [6] $end
$var wire 1 Z# \FD|PC|q\ [5] $end
$var wire 1 [# \FD|PC|q\ [4] $end
$var wire 1 \# \FD|PC|q\ [3] $end
$var wire 1 ]# \FD|PC|q\ [2] $end
$var wire 1 ^# \FD|PC|q\ [1] $end
$var wire 1 _# \FD|PC|q\ [0] $end
$upscope $end
$upscope $end
$enddefinitions $end
#0
$dumpvars
0!
0(!
1)!
x*!
1+!
1,!
1-!
1.!
1/!
10!
01!
18"
19"
0:"
0;"
0<"
0="
0>"
0?"
0@"
0A"
0B"
0C"
0D"
0E"
0F"
0G"
0H"
0I"
0J"
0K"
0L"
0M"
0N"
0O"
0P"
0Q"
0R"
0S"
0T"
0U"
0V"
0W"
1X"
0Y"
0Z"
0["
0\"
0]"
0^"
0_"
0`"
0a"
0b"
0c"
0d"
0e"
0f"
0g"
0h"
0i"
0j"
0k"
0l"
0m"
0n"
0o"
0p"
0q"
0r"
0s"
0t"
0u"
0v"
0w"
0x"
1y"
0z"
0{"
0|"
0}"
0~"
0!#
0"#
0##
0$#
0%#
0&#
0'#
0(#
0)#
0*#
0+#
0,#
0-#
0.#
0/#
00#
01#
02#
03#
04#
05#
06#
07#
08#
09#
0:#
1;#
0<#
0=#
0>#
1?#
02!
03!
04!
05!
06!
07!
08!
09!
0:!
0;!
0<!
0=!
0>!
0?!
0@!
0A!
0B!
0C!
0D!
0E!
0F!
0G!
0H!
0I!
0J!
0K!
0L!
0M!
0N!
0O!
1P!
1Q!
0R!
0S!
0T!
0U!
0V!
0W!
0X!
0Y!
0Z!
0[!
0\!
0]!
0^!
0_!
0`!
0a!
0b!
0c!
0d!
0e!
0f!
0g!
0h!
0i!
0j!
0k!
0l!
0m!
0n!
0o!
0p!
1q!
0r!
0s!
0t!
0u!
0v!
0w!
0x!
0y!
0z!
0{!
0|!
0}!
0~!
0!"
0""
0#"
0$"
0%"
0&"
0'"
0("
0)"
0*"
0+"
0,"
0-"
0."
0/"
00"
01"
12"
03"
04"
05"
16"
07"
x@#
xA#
xB#
xC#
xD#
xE#
xF#
xG#
xH#
xI#
xJ#
xK#
xL#
xM#
xN#
xO#
xP#
xQ#
xR#
xS#
xT#
xU#
xV#
xW#
xX#
xY#
xZ#
x[#
x\#
0]#
x^#
x_#
0"
0#
0$
0%
0&
0'
0(
0)
0*
0+
0,
0-
0.
0/
00
01
02
03
04
05
06
07
08
09
0:
0;
0<
0=
0>
0?
1@
1A
0B
0C
0D
0E
0F
0G
0H
0I
0J
0K
0L
0M
0N
0O
0P
0Q
0R
0S
0T
0U
0V
0W
0X
0Y
0Z
0[
0\
0]
0^
0_
0`
1a
0b
0c
0d
0e
0f
0g
0h
0i
0j
0k
0l
0m
0n
0o
0p
0q
0r
0s
0t
0u
0v
0w
0x
0y
0z
0{
0|
0}
0~
0!!
1"!
0#!
0$!
0%!
1&!
0'!
$end
#50000
1!
11!
1>#
1]#
0?#
1:"
1;"
1<"
1="
1>"
1?"
1@"
1A"
1B"
1C"
1D"
1E"
1F"
1G"
1H"
1I"
1J"
1K"
1L"
1M"
1N"
1O"
1P"
1Q"
1R"
1S"
1T"
1U"
1V"
1W"
1<#
1O!
1N!
1M!
1L!
1K!
1J!
1I!
1H!
1G!
1F!
1E!
1D!
1C!
1B!
1A!
1@!
1?!
1>!
1=!
1<!
1;!
1:!
19!
18!
17!
16!
15!
14!
13!
12!
15"
1?
1>
1=
1<
1;
1:
19
18
17
16
15
14
13
12
11
10
1/
1.
1-
1,
1+
1*
1)
1(
1'
1&
1%
1$
1#
1"
1%!
#100000
0!
01!
0>#
#150000
1!
11!
1>#
0]#
1?#
0:"
0;"
0<"
0="
0>"
0?"
0@"
0A"
0B"
0C"
0D"
0E"
0F"
0G"
0H"
0I"
0J"
0K"
0L"
0M"
0N"
0O"
0P"
0Q"
0R"
0S"
0T"
0U"
0V"
0W"
0<#
0O!
0N!
0M!
0L!
0K!
0J!
0I!
0H!
0G!
0F!
0E!
0D!
0C!
0B!
0A!
0@!
0?!
0>!
0=!
0<!
0;!
0:!
09!
08!
07!
06!
05!
04!
03!
02!
05"
0?
0>
0=
0<
0;
0:
09
08
07
06
05
04
03
02
01
00
0/
0.
0-
0,
0+
0*
0)
0(
0'
0&
0%
0$
0#
0"
0%!
#200000
0!
01!
0>#
#250000
1!
11!
1>#
1]#
0?#
1:"
1;"
1<"
1="
1>"
1?"
1@"
1A"
1B"
1C"
1D"
1E"
1F"
1G"
1H"
1I"
1J"
1K"
1L"
1M"
1N"
1O"
1P"
1Q"
1R"
1S"
1T"
1U"
1V"
1W"
1<#
1O!
1N!
1M!
1L!
1K!
1J!
1I!
1H!
1G!
1F!
1E!
1D!
1C!
1B!
1A!
1@!
1?!
1>!
1=!
1<!
1;!
1:!
19!
18!
17!
16!
15!
14!
13!
12!
15"
1?
1>
1=
1<
1;
1:
19
18
17
16
15
14
13
12
11
10
1/
1.
1-
1,
1+
1*
1)
1(
1'
1&
1%
1$
1#
1"
1%!
#300000
0!
01!
0>#
#350000
1!
11!
1>#
0]#
1?#
0:"
0;"
0<"
0="
0>"
0?"
0@"
0A"
0B"
0C"
0D"
0E"
0F"
0G"
0H"
0I"
0J"
0K"
0L"
0M"
0N"
0O"
0P"
0Q"
0R"
0S"
0T"
0U"
0V"
0W"
0<#
0O!
0N!
0M!
0L!
0K!
0J!
0I!
0H!
0G!
0F!
0E!
0D!
0C!
0B!
0A!
0@!
0?!
0>!
0=!
0<!
0;!
0:!
09!
08!
07!
06!
05!
04!
03!
02!
05"
0?
0>
0=
0<
0;
0:
09
08
07
06
05
04
03
02
01
00
0/
0.
0-
0,
0+
0*
0)
0(
0'
0&
0%
0$
0#
0"
0%!
#400000
0!
01!
0>#
#450000
1!
11!
1>#
1]#
0?#
1:"
1;"
1<"
1="
1>"
1?"
1@"
1A"
1B"
1C"
1D"
1E"
1F"
1G"
1H"
1I"
1J"
1K"
1L"
1M"
1N"
1O"
1P"
1Q"
1R"
1S"
1T"
1U"
1V"
1W"
1<#
1O!
1N!
1M!
1L!
1K!
1J!
1I!
1H!
1G!
1F!
1E!
1D!
1C!
1B!
1A!
1@!
1?!
1>!
1=!
1<!
1;!
1:!
19!
18!
17!
16!
15!
14!
13!
12!
15"
1?
1>
1=
1<
1;
1:
19
18
17
16
15
14
13
12
11
10
1/
1.
1-
1,
1+
1*
1)
1(
1'
1&
1%
1$
1#
1"
1%!
#500000
0!
01!
0>#
#550000
1!
11!
1>#
0]#
1?#
0:"
0;"
0<"
0="
0>"
0?"
0@"
0A"
0B"
0C"
0D"
0E"
0F"
0G"
0H"
0I"
0J"
0K"
0L"
0M"
0N"
0O"
0P"
0Q"
0R"
0S"
0T"
0U"
0V"
0W"
0<#
0O!
0N!
0M!
0L!
0K!
0J!
0I!
0H!
0G!
0F!
0E!
0D!
0C!
0B!
0A!
0@!
0?!
0>!
0=!
0<!
0;!
0:!
09!
08!
07!
06!
05!
04!
03!
02!
05"
0?
0>
0=
0<
0;
0:
09
08
07
06
05
04
03
02
01
00
0/
0.
0-
0,
0+
0*
0)
0(
0'
0&
0%
0$
0#
0"
0%!
#600000
0!
01!
0>#
#650000
1!
11!
1>#
1]#
0?#
1:"
1;"
1<"
1="
1>"
1?"
1@"
1A"
1B"
1C"
1D"
1E"
1F"
1G"
1H"
1I"
1J"
1K"
1L"
1M"
1N"
1O"
1P"
1Q"
1R"
1S"
1T"
1U"
1V"
1W"
1<#
1O!
1N!
1M!
1L!
1K!
1J!
1I!
1H!
1G!
1F!
1E!
1D!
1C!
1B!
1A!
1@!
1?!
1>!
1=!
1<!
1;!
1:!
19!
18!
17!
16!
15!
14!
13!
12!
15"
1?
1>
1=
1<
1;
1:
19
18
17
16
15
14
13
12
11
10
1/
1.
1-
1,
1+
1*
1)
1(
1'
1&
1%
1$
1#
1"
1%!
#700000
0!
01!
0>#
#750000
1!
11!
1>#
0]#
1?#
0:"
0;"
0<"
0="
0>"
0?"
0@"
0A"
0B"
0C"
0D"
0E"
0F"
0G"
0H"
0I"
0J"
0K"
0L"
0M"
0N"
0O"
0P"
0Q"
0R"
0S"
0T"
0U"
0V"
0W"
0<#
0O!
0N!
0M!
0L!
0K!
0J!
0I!
0H!
0G!
0F!
0E!
0D!
0C!
0B!
0A!
0@!
0?!
0>!
0=!
0<!
0;!
0:!
09!
08!
07!
06!
05!
04!
03!
02!
05"
0?
0>
0=
0<
0;
0:
09
08
07
06
05
04
03
02
01
00
0/
0.
0-
0,
0+
0*
0)
0(
0'
0&
0%
0$
0#
0"
0%!
#800000
0!
01!
0>#
#850000
1!
11!
1>#
1]#
0?#
1:"
1;"
1<"
1="
1>"
1?"
1@"
1A"
1B"
1C"
1D"
1E"
1F"
1G"
1H"
1I"
1J"
1K"
1L"
1M"
1N"
1O"
1P"
1Q"
1R"
1S"
1T"
1U"
1V"
1W"
1<#
1O!
1N!
1M!
1L!
1K!
1J!
1I!
1H!
1G!
1F!
1E!
1D!
1C!
1B!
1A!
1@!
1?!
1>!
1=!
1<!
1;!
1:!
19!
18!
17!
16!
15!
14!
13!
12!
15"
1?
1>
1=
1<
1;
1:
19
18
17
16
15
14
13
12
11
10
1/
1.
1-
1,
1+
1*
1)
1(
1'
1&
1%
1$
1#
1"
1%!
#900000
0!
01!
0>#
#950000
1!
11!
1>#
0]#
1?#
0:"
0;"
0<"
0="
0>"
0?"
0@"
0A"
0B"
0C"
0D"
0E"
0F"
0G"
0H"
0I"
0J"
0K"
0L"
0M"
0N"
0O"
0P"
0Q"
0R"
0S"
0T"
0U"
0V"
0W"
0<#
0O!
0N!
0M!
0L!
0K!
0J!
0I!
0H!
0G!
0F!
0E!
0D!
0C!
0B!
0A!
0@!
0?!
0>!
0=!
0<!
0;!
0:!
09!
08!
07!
06!
05!
04!
03!
02!
05"
0?
0>
0=
0<
0;
0:
09
08
07
06
05
04
03
02
01
00
0/
0.
0-
0,
0+
0*
0)
0(
0'
0&
0%
0$
0#
0"
0%!
